date,start_time,timesteps,sensor_value
210504,151311,"[1,2,3,4,5,6,7,8,9,10,11,12,13,14,15,16,17,18,19,20,21,22,23,24,25,26,27,28,29,30,31,32,33,34,35,36,37,38,39,40,41,42,43,44,45,46,47,48,49,50,51,52,53,54,55,56,57,58,59,60,61,62,63,64,65,66,67,68,69,70,71,72,73,74,75,76,77,78,79,80,81,82,83,84,85,86,87,88,89,90,91,92,93,94,95,96,97,98,99,100,]","[0.45,0.78,0.32,0.51,0.41,0.02,0.12,0.95,0.1,0.57,0.13,0.6,0.35,0.55,0.95,0.7,0.25,0.63,0.37,0.04,0.4,0.77,0.04,0.14,0.13,0.3,0.52,0.71,0.35,0.83,0.73,0.73,0.4,0.46,0.57,0.42,0.36,0.92,0.79,0.69,0.65,0.71,0.09,0.56,0.29,0.71,0.13,0.46,0.85,0.46,0.31,0.72,0.14,0.37,0.58,0.25,0.16,0.98,0.12,0.07,0.12,0.11,0.61,0.47,0.45,0.88,0.3,0.1,0.55,0.16,0.86,0.06,0.69,0.95,0.07,0.65,0.92,0.71,0.43,0.33,0.2,0.24,0.05,0.38,0.88,0.99,0.43,0.28,0.49,0.63,0.58,0.6,0.51,0.87,0.3,0.96,0.87,0.67,0.04,0.39]"
210412,112514,"[1,2,3,4,5,6,7,8,9,10,11,12,13,14,15,16,17,18,19,20,21,22,23,24,25,26,27,28,29,30,31,32,33,34,35,36,37,38,39,40,41,42,43,44,45,46,47,48,49,50,51,52,53,54,55,56,57,58,59,60,61,62,63,64,65,66,67,68,69,70,71,72,73,74,75,76,77,78,79,80,81,82,83,84,85,86,87,88,89,90,91,92,93,94,95,96,97,98,99,100,]","[0.04,0.44,0.57,0.09,0.86,0.63,0.9,0.78,0.7,0.81,0.56,0.57,0.43,0.71,0.2,0.32,0.13,0.85,0.64,0.57,0.64,0.84,0.99,0.14,0.06,0.71,0.42,0.28,0.04,0.79,0.85,0.04,0.51,0.44,0.03,0.83,0.2,0.52,0.1,0.28,0.22,0.79,0.44,0.11,0.12,0.78,0.76,0.84,0.16,0.6,0.98,0.7,0.53,0.53,0.76,0.14,0.07,0.6,0.24,0.89,0.6,0.65,0.21,0.48,0.02,0.88,0.51,0.95,0.94,0.61,0.51,0.58,0.17,0.95,0.78,0.47,0.61,0.48,0.1,0.05,0.58,0.23,0.12,0.3,0.88,0.28,0.69,0.62,0.88,0.05,0.64,0.08,0.17,0.76,0.86,0.86,0.29,0.53,0.05,0.73]"
201215,141603,"[1,2,3,4,5,6,7,8,9,10,11,12,13,14,15,16,17,18,19,20,21,22,23,24,25,26,27,28,29,30,31,32,33,34,35,36,37,38,39,40,41,42,43,44,45,46,47,48,49,50,51,52,53,54,55,56,57,58,59,60,61,62,63,64,65,66,67,68,69,70,71,72,73,74,75,76,77,78,79,80,81,82,83,84,85,86,87,88,89,90,91,92,93,94,95,96,97,98,99,100,]","[0.38,0.17,0.84,0.47,0.67,0.24,0.61,0.14,0.35,0.59,0.24,0.16,0.59,0.04,0.82,0.54,0.33,0.88,0.68,0.12,0.82,0.32,0.15,0.01,0.78,0.58,0.54,0.79,0.28,0.61,0.3,0.27,0.07,0.39,0.11,0.57,0.53,0.8,0.45,0.28,0.72,0.48,0.27,0.45,0.36,0.44,0.97,0.06,0.48,0.39,0.21,0.18,0.9,0.64,0.79,0.66,0.12,0.97,0.12,0.79,0.43,0.72,0.81,0.32,0.48,0.13,0.56,0.23,0.32,0.44,0.15,0.62,0.01,0.6,0.68,0.62,0.52,0.95,0.98,0.04,0.78,0.38,0.92,0.86,0.98,0.61,0.91,0.45,0.65,0.14,0.69,0.13,0.54,0.97,0.09,0.86,0.72,0.03,0.17,0.9]"
201114,180203,"[1,2,3,4,5,6,7,8,9,10,11,12,13,14,15,16,17,18,19,20,21,22,23,24,25,26,27,28,29,30,31,32,33,34,35,36,37,38,39,40,41,42,43,44,45,46,47,48,49,50,51,52,53,54,55,56,57,58,59,60,61,62,63,64,65,66,67,68,69,70,71,72,73,74,75,76,77,78,79,80,81,82,83,84,85,86,87,88,89,90,91,92,93,94,95,96,97,98,99,100,]","[0.72,0.2,0.23,0.56,0.54,0.18,0.52,0.98,0.89,0.65,0.49,0.34,0.63,0.77,0.34,0.96,0.06,0.91,0.06,0.41,0.76,0.67,0.52,0.43,0.74,0.28,0.88,0.22,0.76,0.16,0.68,0.12,0.81,0.86,0.64,0.26,0.09,0.03,0.24,0.72,0.38,0.13,0.1,0.35,0.64,0.06,0.81,0.7,0.82,0.02,0.65,0.92,0.98,0.47,0.27,0.71,0.95,0.86,0.51,0.73,0.2,0.02,0.46,0.6,0.1,0.21,0.65,0.99,0.11,0.24,0.54,0.63,0.09,0.38,0.64,0.85,0.67,0.15,0.52,0.72,0.42,0.76,0.58,0.64,0.43,0.83,0.46,0.65,0.35,0.2,0.37,0.51,0.98,0.31,0.26,0.52,0.73,0.99,0.43,0.83]"
200801,143233,"[1,2,3,4,5,6,7,8,9,10,11,12,13,14,15,16,17,18,19,20,21,22,23,24,25,26,27,28,29,30,31,32,33,34,35,36,37,38,39,40,41,42,43,44,45,46,47,48,49,50,51,52,53,54,55,56,57,58,59,60,61,62,63,64,65,66,67,68,69,70,71,72,73,74,75,76,77,78,79,80,81,82,83,84,85,86,87,88,89,90,91,92,93,94,95,96,97,98,99,100,]","[0.42,0.38,0.43,0.17,0.94,0.13,0.95,0.63,0.9,0.72,0.77,0.66,0.32,0.05,0.79,0.62,0.94,0.66,1,0.32,0.83,0.12,0.8,0.91,0.09,0.79,0.89,0.77,0.81,0.26,0.8,0.99,0.56,0.21,0.23,0.56,0.48,0.45,0.48,0.68,0.06,0.38,0.27,0.27,0.81,0.5,0.59,0.15,0.49,0.67,0.31,0.93,0.66,0.41,0.82,0.75,0.03,0.83,0.12,0.32,0.99,0.23,0.59,0.1,0.43,0.35,0.7,0.82,0.22,0.03,0.33,0.91,0.66,0.43,0.06,0.64,0.98,0.41,0.88,0.47,0.13,0.35,0.37,0.73,0.6,0.81,0.53,0.93,0.17,0.23,0.75,0.12,0.74,0.77,0.27,0.9,0.5,0.86,0.95,0.67]"
200313,151859,"[1,2,3,4,5,6,7,8,9,10,11,12,13,14,15,16,17,18,19,20,21,22,23,24,25,26,27,28,29,30,31,32,33,34,35,36,37,38,39,40,41,42,43,44,45,46,47,48,49,50,51,52,53,54,55,56,57,58,59,60,61,62,63,64,65,66,67,68,69,70,71,72,73,74,75,76,77,78,79,80,81,82,83,84,85,86,87,88,89,90,91,92,93,94,95,96,97,98,99,100,]","[0,0.9,0.74,0.14,0.49,0.25,0.81,0.92,0.41,0.03,0.24,0.08,0.11,0.51,0.53,0.48,0.06,0.38,0.95,0.88,0.23,0.15,0.64,0.42,0.93,0.25,0.96,0.35,0.52,0.56,0.32,0.32,0.09,0.24,0.77,0.5,0.74,0.48,0.35,0.28,0.24,0.78,0.51,0.88,0.78,0.34,0.27,0.16,0.77,0.58,0.05,0.39,0.89,0.73,0.6,0.39,0.87,0.81,0.57,0.09,0.56,0.51,0.74,0.99,0.62,0.73,0.56,0.01,0.52,0.44,0.41,0.46,0.61,0.3,0.85,0.29,0.19,0.98,0.89,0.88,0.93,0.13,0.94,0.97,0.03,0.71,0.67,0.53,0.86,0.3,0.08,0.07,0.8,0.57,0.78,0.05,0.26,0.9,0.13,0.48]"
200222,134141,"[1,2,3,4,5,6,7,8,9,10,11,12,13,14,15,16,17,18,19,20,21,22,23,24,25,26,27,28,29,30,31,32,33,34,35,36,37,38,39,40,41,42,43,44,45,46,47,48,49,50,51,52,53,54,55,56,57,58,59,60,61,62,63,64,65,66,67,68,69,70,71,72,73,74,75,76,77,78,79,80,81,82,83,84,85,86,87,88,89,90,91,92,93,94,95,96,97,98,99,100,]","[0.93,0.64,0.87,0.51,0.13,0.92,0.41,0.6,0.02,0.26,0.3,0.05,0.27,0.26,0.04,0.45,0.27,0.11,0.44,0.1,0.11,0.76,0.71,0.25,0.82,0.88,0.73,0.95,0.34,0.37,0.26,0.84,0,0.96,0.13,0.77,0.6,0.57,0.5,0.07,0.22,0.42,0.43,0.66,0.55,0.85,0.55,0.69,0.7,0.8,0.04,0.57,0.64,1,0.67,0.64,0.23,0.93,0.98,0.04,0.12,0.41,0.48,0.96,0.58,0.37,0.07,0.11,0.88,0.34,0.84,0.32,0.24,0.27,0.15,0.05,0.17,0.11,0.47,0.1,0.06,0.41,0.27,0.05,0.26,0.07,0.36,0.3,0.72,0.1,0.53,0.2,0.21,0.48,0.38,0.4,0.86,0.36,0.7,0.21]"
200115,171839,"[1,2,3,4,5,6,7,8,9,10,11,12,13,14,15,16,17,18,19,20,21,22,23,24,25,26,27,28,29,30,31,32,33,34,35,36,37,38,39,40,41,42,43,44,45,46,47,48,49,50,51,52,53,54,55,56,57,58,59,60,61,62,63,64,65,66,67,68,69,70,71,72,73,74,75,76,77,78,79,80,81,82,83,84,85,86,87,88,89,90,91,92,93,94,95,96,97,98,99,100,]","[0.13,0.92,0.11,0.88,0.48,0.77,0.98,0.69,0.9,0.55,0.99,0.26,0.57,0.69,0.24,0.25,0.11,0.08,0.72,0.36,0.1,0.94,0.73,0.37,0.58,0.11,0.53,0.1,0.29,0.64,0.36,0.36,0.46,0.18,0.02,0.9,0.72,0.02,0.34,0.89,0.5,0.82,0.51,0.9,0.77,0.07,0.53,0.18,0.47,0.81,0.49,0.4,0.25,0.92,0.1,0.75,0.1,0.46,0.99,0.49,0.63,0.58,0.9,0.36,0.01,0.03,0.5,0.87,0.65,0.68,0.05,0.45,0.38,0.62,0.01,0.14,1,0.97,0.61,0.88,0.63,0.9,0.67,0.94,0.12,0.88,0.7,0.38,0.82,0.5,0.48,0.67,0.77,0.17,0.65,0.1,0.5,0.22,0.69,0.88]"
